Times,Data
0.10000000149011612,0.20584289729595184
0.20000000298023224,0.39868271350860596
0.30000001192092896,0.5704134702682495
0.4000000059604645,0.7140058279037476
0.5,0.8237888813018799
0.6000000238418579,0.8956713080406189
0.699999988079071,0.9272860884666443
0.800000011920929,0.9180594086647034
0.8999999761581421,0.8692001104354858
1.0,0.7836121916770935
1.100000023841858,0.6657345294952393
1.2000000476837158,0.5213186740875244
1.2999999523162842,0.3571535050868988
1.399999976158142,0.18074969947338104
1.5,-7.524548095716455e-08
1.600000023841858,-0.17717069387435913
1.7009999752044678,-0.3431495130062103
1.7999999523162842,-0.49095961451530457
1.899999976158142,-0.6145504117012024
2.0,-0.7090415954589844
2.0999999046325684,-0.7709115147590637
2.200000047683716,-0.7981225252151489
2.299999952316284,-0.7901811003684998
2.4000000953674316,-0.7481275796890259
2.5,-0.674461305141449
2.5999999046325684,-0.5730028748512268
2.700000047683716,-0.44870319962501526
2.799999952316284,-0.3074047863483429
2.9000000953674316,-0.15557250380516052
3.0,1.295288001301742e-07
3.0999999046325684,0.152492493391037
3.200000047683716,0.2953515946865082
3.299999952316284,0.42257270216941833
3.4000000953674316,0.5289484858512878
3.5,0.6102778911590576
3.5999999046325684,0.6635295748710632
3.700000047683716,0.6869503855705261
3.799999952316284,0.6801151037216187
3.9000000953674316,0.6439194083213806
4.0,0.5805140137672424
4.099999904632568,0.4931877851486206
4.199999809265137,0.38620200753211975
4.300000190734863,0.26458561420440674
4.400000095367432,0.13390250504016876
4.500999927520752,-1.52072807679815e-08
4.599999904632568,-0.13125169277191162
4.699999809265137,-0.2542116045951843
4.800000190734863,-0.3637118935585022
4.900000095367432,-0.45527011156082153
5.0,-0.5252708792686462
5.099999904632568,-0.5711051821708679
5.199999809265137,-0.5912637114524841
5.300000190734863,-0.5853806138038635
5.400000095367432,-0.5542265176773071
5.5,-0.4996531009674072
5.599999904632568,-0.42449089884757996
5.699999809265137,-0.33240699768066406
5.800000190734863,-0.22773079574108124
5.900000095367432,-0.11525080353021622
6.0,1.9191449496247515e-07
6.099999904632568,0.11296910047531128
6.199999809265137,0.2188020944595337
6.300000190734863,0.3130497932434082
6.400000095367432,0.39185479283332825
6.5,0.4521048963069916
6.599999904632568,0.49155479669570923
6.699999809265137,0.5089054107666016
6.801000118255615,0.5038416981697083
6.900000095367432,0.47702720761299133
7.0,0.43005529046058655
7.10099983215332,0.36536261439323425
7.199999809265137,0.28610560297966003
7.300000190734863,0.19600950181484222
7.400000095367432,0.0991971418261528
7.5,-3.1909888775771833e-07
7.599999904632568,-0.09723351895809174
7.699999809265137,-0.18832449615001678
7.800000190734863,-0.26944470405578613
7.900000095367432,-0.33727291226387024
8.0,-0.3891304135322571
8.100000381469727,-0.4230853021144867
8.199999809265137,-0.4380190074443817
8.300000190734863,-0.43366050720214844
8.399999618530273,-0.41058090329170227
8.5,-0.370152086019516
8.600000381469727,-0.31447041034698486
8.701000213623047,-0.2455431967973709
8.800000190734863,-0.1687072068452835
8.901000022888184,-0.08453898876905441
9.0,1.93931803948999e-08
9.100000381469727,0.08368978649377823
9.199999809265137,0.16209280490875244
9.300000190734863,0.23191289603710175
9.399999618530273,0.29029330611228943
9.5,0.334927499294281
9.600000381469727,0.3641529083251953
9.699999809265137,0.37700629234313965
9.800000190734863,0.3732551038265228
