Times,Position,Speed
0.20100000500679016,14247.0,608.1079711914062
0.4000000059604645,29138.0,610.8596801757812
0.6010000109672546,44191.0,610.8596801757812
0.800000011920929,58639.0,559.9547119140625
1.0010000467300415,73494.0,610.8596801757812
1.2009999752044678,88058.0,557.432373046875
1.399999976158142,102369.0,596.5908813476562
1.600000023841858,117055.0,610.8596801757812
1.8009999990463257,131491.0,571.7490234375
2.0,146148.0,576.923095703125
2.2009999752044678,160784.0,571.7490234375
2.4010000228881836,175477.0,627.828125
2.6010000705718994,190502.0,605.3812255859375
2.8010001182556152,205161.0,608.1079711914062
3.0,219903.0,627.828125
3.200000047683716,234762.0,610.8596801757812
3.4010000228881836,249457.0,557.432373046875
3.6010000705718994,264356.0,559.9547119140625
3.799999952316284,279060.0,559.9547119140625
4.000999927520752,288598.0,50.448429107666016
4.199999809265137,294879.0,0.0
4.400000095367432,298352.0,50.90496826171875
4.599999904632568,299789.0,0.0
4.800000190734863,299837.0,33.783790588378906
5.000999927520752,299838.0,-16.816139221191406
5.201000213623047,299837.0,33.936649322509766
5.400000095367432,299838.0,-16.96833038330078
5.599999904632568,299838.0,0.0
5.800000190734863,299838.0,0.0
6.0,299839.0,16.816139221191406
6.199999809265137,299839.0,0.0
6.400000095367432,299838.0,0.0
6.60099983215332,299838.0,0.0
6.800000190734863,299838.0,0.0
7.0,299838.0,0.0
7.201000213623047,299836.0,0.0
7.401000022888184,299836.0,0.0
7.60099983215332,299836.0,0.0
7.800000190734863,299836.0,0.0
8.0,299836.0,0.0
8.201000213623047,299836.0,0.0
8.401000022888184,299836.0,0.0
8.600000381469727,299839.0,0.0
8.800000190734863,299839.0,0.0
9.0,299839.0,0.0
9.201000213623047,299839.0,0.0
9.399999618530273,299839.0,0.0
9.600000381469727,299839.0,0.0
9.800000190734863,299839.0,0.0
10.00100040435791,299839.0,0.0
10.201000213623047,299837.0,0.0
10.399999618530273,299837.0,0.0
10.600000381469727,299837.0,0.0
10.800999641418457,299837.0,0.0
11.00100040435791,299837.0,0.0
11.199999809265137,299837.0,0.0
11.401000022888184,299837.0,0.0
11.60099983215332,299837.0,0.0
11.800999641418457,299837.0,0.0
12.0,299837.0,0.0
12.199999809265137,299837.0,0.0
12.401000022888184,299835.0,0.0
12.600000381469727,299835.0,0.0
12.800999641418457,299835.0,0.0
13.0,299835.0,0.0
13.199999809265137,299835.0,0.0
13.399999618530273,299835.0,0.0
13.600000381469727,299835.0,0.0
13.800999641418457,299835.0,0.0
14.00100040435791,299835.0,0.0
14.201000213623047,299833.0,0.0
14.401000022888184,299833.0,0.0
14.600000381469727,299833.0,0.0
14.800999641418457,299833.0,0.0
15.00100040435791,299833.0,0.0
15.201000213623047,299833.0,0.0
15.399999618530273,299833.0,0.0
15.60099983215332,299833.0,0.0
15.800999641418457,299835.0,0.0
