Times,X pos,Y pos,X Vel,Y vel,Pwmx,Pwmy,M1 Angle,M2 Angle 
1,-0.4,-6,0.3,0.4,-4.4,0.8,-0.1,-1
25,0,-5.6,0.6,0.7,-4,0.3,-0.1,-1
54,0.1,-5.3,0.1,0.5,-3.5,1.2,-0.1,-1
90,1.2,-3.1,1.3,2.8,-2.8,-0.3,-0.1,-0.9
114,1.4,-1.8,0.3,2.2,-0.7,-1.1,-0.1,-1
151,1.5,-0.9,0.2,1.5,-0.3,-0.2,-0.1,-0.9
199,2,1,0.5,1.5,1.1,-0.7,-0.1,-1
241,1.9,2.4,-0.2,1.3,1.5,-0.9,-0.1,-1
270,1.5,3,-0.6,0.9,2.4,-0.6,-0.1,-1
320,1.3,4.4,0,0.9,3.3,-0.1,-0.1,-1
351,0.8,4.6,-0.7,0.3,3.5,-0.3,-0.1,-1
390,0.8,4.6,-0.7,0.3,3.5,-0.3,-0.1,-1
435,0.8,4.6,-0.7,0.3,3.5,-0.3,-0.1,-1
471,-1.2,5.8,-3.4,2.1,3.5,-0.3,-0.1,-1
510,-1.8,5.7,-0.5,-0.1,5,3.1,-0.1,-1
564,-2.4,5.3,-0.5,-0.3,3.6,2.2,-0.1,-1
593,-2.3,5.1,0.2,-0.3,3.5,2.5,-0.1,-1
631,-2.2,4.9,0.2,-0.4,3.4,2.1,-0.1,-1
677,-2,4.5,0.1,-0.4,2.9,2,-0.1,-1
715,-1.6,4.1,0.7,-0.4,2.9,2,-0.1,-1
750,-1.5,3.7,0.1,-0.7,2.6,1.3,-0.1,-1
810,-0.8,3.2,0.2,-0.3,2.4,1,-0.1,-1
829,-0.8,3.2,0.2,-0.3,2,1.1,-0.1,-1
870,-0.8,2.8,-0.5,-0.4,1.9,0.6,-0.1,-1
921,-2,2.6,-2,-0.2,1.9,1.2,-0.1,-1
951,-2,2.6,-2,-0.2,1.7,2.9,-0.1,-1
991,-1.4,1,1.1,-2.6,1.7,2.9,-0.1,-1
1039,-1.4,0.8,0.5,-0.5,0.7,1.9,-0.1,-1
1070,-1.2,0.7,0.3,-0.2,0.2,1.3,-0.1,-1
1128,-1,0.3,0.7,-0.3,0,1,-0.1,-1
1163,-1.4,0.1,-0.4,-0.1,0,1.5,-0.1,-1
1193,-1.1,0.1,0.5,0.1,0,1.7,-0.1,-1
1229,-1.1,0.2,-0.1,0.1,0.1,1.1,-0.1,-1
1275,-1.2,0.3,0,0.2,0.3,1.5,-0.1,-1
1313,-1.3,0.5,-0.1,0,0.4,1.5,-0.1,-1
1350,-1.4,0.5,-0.2,0,0.3,1.6,-0.1,-1
1401,-1.2,0.5,0.1,-0.1,0.3,1.4,-0.1,-1
1431,-1.4,0.3,-0.4,-0.2,0.1,1.8,-0.1,-1
1471,-1.2,0.4,0.1,0,0.3,1.4,-0.1,-1
1520,-1.3,0.5,-0.4,-0.1,0.4,1.2,-0.1,-1
1552,-1.2,0.5,0.1,0,0.3,1.4,-0.1,-1
1590,-1.3,0.5,-0.2,0,0.3,1.4,-0.1,-1
1645,-1.3,0.5,-0.1,0.2,0.2,1.4,-0.1,-1
1676,-1.4,0.5,-0.1,0,0.4,1.5,-0.1,-1
1726,-1.2,0.5,-0.2,0.1,0.3,1.6,-0.1,-1
1762,-1.2,0.5,0.1,0.1,0.3,1.5,-0.1,-1
1792,-1.3,0.5,-0.1,-0.1,0.4,1.4,-0.1,-1
1830,-1.1,0.5,0.4,0.1,0.2,1.5,-0.1,-1
1874,-1.2,0.5,0,0,0.3,1.5,-0.1,-1
1911,-1.1,0.5,0.3,0.1,0.2,1.5,-0.1,-1
1950,-1.4,0.4,-0.5,-0.1,0.3,1.2,-0.1,-1
2002,-1.3,0.5,-0.1,0,0.3,1.4,-0.1,-1
2030,-1.1,0.5,0.3,0.1,0.4,1.3,-0.1,-1
2070,-1.2,0.5,0.5,-0.1,0.3,2,-0.1,-1
2117,-1.4,0.5,-0.4,0.2,0.1,1.3,-0.1,-1
2149,-1.2,0.4,0.2,-0.2,0.1,1.4,-0.1,-1
2190,-1.3,0.4,-0.3,0,0.2,1.3,-0.1,-1
2230,-1.3,0.4,0,0,0.2,1.5,-0.1,-1
2274,-1.3,0.5,-0.2,0.1,0.3,1.3,-0.1,-1
2311,-1.2,0.3,0.1,-0.2,0.3,1.4,-0.1,-1
2352,-1.5,0.4,-0.5,0.1,0.3,1.8,-0.1,-1
2396,-1.1,0.4,0.3,0.1,0.2,1.3,-0.1,-1
2430,-1.2,0.5,-0.2,0.1,0.3,1.2,-0.1,-1
2474,-1.2,0.5,-0.3,0.2,0.4,1.6,-0.1,-1
2518,-1.1,0.4,0,0.2,0.1,1.3,-0.1,-1
2551,-1.4,0.4,-0.4,0,0.3,1.4,-0.1,-1
2601,-1.1,0.3,0.2,-0.1,0.2,1.3,-0.1,-1
2629,-1,0.4,0.1,0.1,0.3,1.3,-0.1,-1
2671,-1.2,0.4,-0.3,0,0.3,1.3,-0.1,-1
2719,-1.1,0.5,0.5,0.2,0.2,1.8,-0.1,-1
2751,-1.2,0.5,-0.2,-0.1,0.3,1.6,-0.1,-1
2815,-1.2,0.3,0,-0.1,0.2,1.3,-0.1,-1
2843,-1,0.4,0.3,0.1,0.2,1.4,-0.1,-1
2873,-1.2,0.3,-0.3,-0.1,0.3,1.2,-0.1,-1
2911,-1.4,0.5,-0.4,0.2,0.3,1.4,-0.1,-1
2952,-1.3,0.5,0.1,0,0.3,1.5,-0.1,-1
2991,-1.1,0.5,-0.3,0.1,0.2,1,-0.1,-1
3049,-1.3,0.3,-0.3,-0.1,0.1,1.6,-0.1,-1
3078,-1.2,0.3,0.1,0,0.2,1.4,-0.1,-1
3114,-1.9,-0.5,-1,-1.2,0.1,1.5,-0.1,-1
3150,-2.8,-1.4,-1.5,-1.5,-0.9,2.4,-0.1,-1
3192,-2.8,-1.4,-1.5,-1.5,-1.7,3.2,-0.1,-1
3238,-6.6,-5.2,-0.8,-1.2,-5.7,30,-0.1,-1
3271,-7.1,-6,-0.8,-1.2,-4.2,5.6,-0.1,-1
3327,-7.9,-6.6,-1,-0.3,-4.5,6,-0.1,-1
3379,-7.9,-6.7,-0.5,0,-4.4,6.4,-0.2,-1
3402,-7.7,-6.7,0.3,0.1,-4.7,5.7,-0.1,-0.9
3445,-7,-6,0.7,0.7,-4.3,5.4,-0.1,-0.9
3472,-6.4,-5.3,1,1.1,-4.1,5,-0.1,-1
3525,-5.5,-4.6,0.1,0.2,-3.2,4.4,-0.1,-0.9
3551,-5.5,-4.6,0.1,0.2,-3.2,4.4,-0.1,-0.9
3592,-2.7,-2,0.7,0.9,-0.3,0.7,-0.1,-1
3630,-1.5,-1.2,2,1.3,-1,2.1,-0.1,-0.9
3677,-0.1,-0.1,0.5,0.4,0,0.3,-0.1,-0.9
3712,1.9,1.8,0.6,1.3,1.6,-1.8,-0.1,-0.9
3751,2.4,2.3,0.8,0.8,1.8,-1.1,-0.1,-0.9
3803,3,3.4,0,0.2,2.3,-1.6,-0.1,-0.9
3830,3.2,3.7,0.3,0.6,2.8,-1.8,-0.1,-0.9
3870,3.4,4,-0.1,0.3,2.6,-2.1,-0.1,-0.9
3922,2.9,3.8,-0.7,-0.3,2.8,-1.7,-0.1,-0.9
3951,2.9,3.8,0.1,-0.1,2.6,-1.5,-0.1,-0.9
4002,2.1,3,-0.8,-0.6,1.8,-0.5,-0.1,-0.9
4038,1,2.6,-1,-0.2,1.5,-0.2,-0.1,-0.9
4070,1,2.6,-1,-0.2,1.6,0.4,-0.1,-0.9
4130,-1.5,1.3,-4.2,-2.1,-0.1,3.6,-0.1,-0.9
4154,-2,0.8,-0.7,-0.9,0.1,2.3,-0.1,-0.9
4190,-2.8,-0.2,-0.2,-0.8,-0.3,3,-0.1,-0.9
4231,-3.5,-1.1,-1.3,-1.6,-0.6,2.6,-0.1,-0.9
4277,-6.7,-4.3,-1.9,-3.7,-4.9,6.2,-0.1,-0.9
4312,-10.2,-8.2,-3.5,-3.4,-6,30,-0.1,-0.9
4361,-11.9,-11.4,-1.2,-1.9,-35,30,-0.1,-0.9
4392,-13.1,-14.3,-2,-4.7,-35,30,-0.3,-1
4435,-15.2,-17,-1.4,-2.7,-35,30,-0.3,-1.1
4479,-15.2,-18.4,0,-2.4,-35,30,-0.4,-1.2
4516,-15.3,-19,0.1,-0.3,-35,30,-0.4,-1.2
4551,-15.2,-19,0.2,0.1,-35,30,-0.4,-1.2
4591,-13.4,-18.9,2,0,-35,30,-0.4,-1.2
4638,-11,-16.6,1.5,2.7,-35,30,-0.4,-1.2
4671,-9.7,-15.1,2.1,2.4,-35,30,-0.4,-1.2
4727,-6.3,-13,1.3,1.1,-35,4.5,-0.4,-1.2
4766,-2.9,-10.5,4,0.2,-5.9,3.5,-0.3,-1.2
4797,-0.4,-9.6,4.1,1.6,-35,0.7,-0.4,-1.2
4830,1.4,-8.6,3,1.6,-6,-0.7,-0.3,-1.1
4876,3.6,-6.2,1.7,2.5,-3.5,-2,-0.3,-1.2
4912,7,-5.7,2.4,0.4,-4.3,-4.2,-0.4,-1.1
4951,8.3,-5.3,2.2,0.6,-4.2,-5.9,-0.3,-1.2
5005,10.7,-4.9,0.7,0.3,-3.6,-35,-0.4,-1.1
5041,11.9,-4.4,1.3,0.2,-3.1,-35,-0.4,-1.1
5071,12,-4.5,0.2,-0.2,-3.2,-35,-0.1,-1.1
5120,11.9,-4.5,0.1,-0.3,-3.4,-35,-0.1,-1.1
5149,10.8,-4.6,-1.8,-0.2,-3.4,-35,-0.1,-1.1
5204,8.7,-5.1,-1.7,0,-3.6,-4.6,-0.1,-1.1
5238,6,-5.7,-1.8,-0.6,-3.9,-3.1,-0.1,-1.1
5269,4.3,-6.2,-2.9,-0.8,-4.4,-2.6,-0.3,-1.1
5327,2.1,-7.5,-1.3,-1.7,-6.3,-0.2,-0.2,-1.1
5362,-0.5,-9.8,-2.9,-1.2,-35,0.6,-0.2,-1.1
5391,-2.2,-10.7,-2.7,-1.6,-35,2.5,-0.2,-1.1
5431,-2.8,-11.1,-1,-0.6,-35,3,-0.2,-1.3
5472,-2.8,-11.1,-1,-0.6,-35,3,-0.2,-1.3
5513,-6.6,-14.5,-1.2,-1.1,-35,30,-0.2,-1.3
5551,-7.5,-15.3,-1.4,-1.3,-35,5.9,-0.2,-1.3
5599,-7.9,-15.9,0.2,-0.4,-35,6.1,-0.2,-1.3
5630,-7.9,-15.9,0.2,-0.4,-35,6.1,-0.3,-1.4
5670,-7.7,-15.8,0.3,0.2,-35,6.1,-0.2,-1.4
5716,-7.4,-15.2,0.9,0.7,-35,6.6,-0.3,-1.4
5751,-7.1,-14.6,0.5,1,-35,5.5,-0.2,-1.4
5790,-6.1,-13.8,1.1,0.9,-35,5.3,-0.3,-1.4
5834,-5.9,-13.4,0.4,0.6,-35,4.8,-0.3,-1.4
5870,-5.9,-13.4,0.4,0.6,-35,4.8,-0.2,-1.4
5927,-1.8,-10.9,1.5,0.9,-35,1.4,-0.2,-1.4
5966,-0.1,-10,2,0.4,-6.9,1.7,-0.2,-1.3
5992,0.8,-9.7,1.5,0.6,-7,0.3,-0.3,-1.4
6055,2.7,-9.1,0.8,0.2,-6,-0.5,-0.4,-1.2
6076,3.2,-8.8,0.8,0.4,-6.3,-2.3,-0.4,-1.2
6110,3.4,-9.7,0.5,-1.4,-35,-1.6,-0.3,-1.2
6150,-113.2,-72,-194.3,-103.9,-35,-1.6,-0.3,-1.2
6189,6,-8.9,198.7,105.1,-99.00001,-99.00001,-0.3,-1.4
6231,7.5,-10.6,2.4,-2.7,-35,-5.4,1.4,-3.1
6271,7.5,-10.6,2.4,-2.7,-35,-5.4,5.2,-6.2
6315,11.3,-13.8,6.3,-5.4,-35,-35,8.6,-8.8
6352,5.2,-9.6,-10.2,7.1,0.6,5.4,10.6,-10.2
6389,-6.2,-0.7,-10.5,7.9,5.5,30,10.7,-10.2
6438,-12.8,4.1,-11,7.9,30,20.9,10.6,-10.1
6470,-29,16.6,-27.1,20.9,30,20.9,10.6,-10
6511,-38.3,-72.2,-15.4,-147.9,-99.00001,40.3,10.5,-9.9
6556,-61.9,40.1,-39.3,187.1,99.00001,65.4,10.6,-10.2
6591,-61.9,40.1,-39.3,187.1,99.00001,65.4,10.4,-12.6
6631,-61.9,40.1,-39.3,187.1,99.00001,65.4,9.7,-15.1
6672,-61.9,40.1,-39.3,187.1,99.00001,65.4,8.6,-13
6716,-61.9,40.1,-39.3,187.1,99.00001,65.4,3.4,-4.5
6750,-61.9,40.1,-39.3,187.1,99.00001,65.4,-1.6,2.9
6790,-61.9,40.1,-39.3,187.1,99.00001,65.4,-4.5,6.6
6829,-61.9,40.1,-39.3,187.1,99.00001,65.4,-6.6,5.8
6871,-61.9,40.1,-39.3,187.1,99.00001,65.4,-6.8,5.8
6911,-61.9,40.1,-39.3,187.1,99.00001,65.4,-6.8,5.9
6950,-61.9,40.1,-39.3,187.1,99.00001,65.4,-6.8,5.9
6990,-61.9,40.1,-39.3,187.1,99.00001,65.4,-6.8,5.9
7032,-61.9,40.1,-39.3,187.1,99.00001,65.4,-6.8,5.9
7070,-61.9,40.1,-39.3,187.1,99.00001,65.4,-6.8,5.9
7110,-61.9,40.1,-39.3,187.1,99.00001,65.4,-6.8,5.9
7152,-61.9,40.1,-39.3,187.1,99.00001,65.4,-6.8,5.9
7190,-61.9,40.1,-39.3,187.1,99.00001,65.4,-6.8,5.9
7230,-61.9,40.1,-39.3,187.1,99.00001,65.4,-6.8,5.9
7270,-61.9,40.1,-39.3,187.1,99.00001,65.4,-6.8,5.9
7311,-61.9,40.1,-39.3,187.1,99.00001,65.4,-6.8,5.9
7350,-61.9,40.1,-39.3,187.1,99.00001,65.4,-6.8,5.9
7390,-61.9,40.1,-39.3,187.1,99.00001,65.4,-6.8,5.9
7431,-61.9,40.1,-39.3,187.1,99.00001,65.4,-6.8,5.9
7471,-61.9,40.1,-39.3,187.1,99.00001,65.4,-6.8,5.9
7512,-61.9,40.1,-39.3,187.1,99.00001,65.4,-6.8,5.9
7550,-61.9,40.1,-39.3,187.1,99.00001,65.4,-6.8,5.9
7591,-61.9,40.1,-39.3,187.1,99.00001,65.4,-6.8,5.9
7630,-61.9,40.1,-39.3,187.1,99.00001,65.4,-6.8,5.9
7670,-61.9,40.1,-39.3,187.1,99.00001,65.4,-6.8,5.9
7711,-61.9,40.1,-39.3,187.1,99.00001,65.4,-6.8,5.9
7749,-61.9,40.1,-39.3,187.1,99.00001,65.4,-6.8,5.9
7790,-61.9,40.1,-39.3,187.1,99.00001,65.4,-6.8,5.9
7829,-61.9,40.1,-39.3,187.1,99.00001,65.4,-6.8,5.9
7872,-61.9,40.1,-39.3,187.1,99.00001,65.4,-6.8,5.9
7910,-61.9,40.1,-39.3,187.1,99.00001,65.4,-6.8,5.9
7950,-61.9,40.1,-39.3,187.1,99.00001,65.4,-6.8,5.9
7990,-61.9,40.1,-39.3,187.1,99.00001,65.4,-6.8,5.9
8030,-61.9,40.1,-39.3,187.1,99.00001,65.4,-6.8,5.9
8070,-61.9,40.1,-39.3,187.1,99.00001,65.4,-6.8,5.9
8110,-61.9,40.1,-39.3,187.1,99.00001,65.4,-6.8,5.9
8151,-61.9,40.1,-39.3,187.1,99.00001,65.4,-6.8,5.9
8190,-61.9,40.1,-39.3,187.1,99.00001,65.4,-6.8,5.9
8230,-61.9,40.1,-39.3,187.1,99.00001,65.4,-6.8,5.9
8271,-61.9,40.1,-39.3,187.1,99.00001,65.4,-6.8,5.9
8310,-61.9,40.1,-39.3,187.1,99.00001,65.4,-6.8,5.9
8350,-61.9,40.1,-39.3,187.1,99.00001,65.4,-6.8,5.9
8395,-61.9,40.1,-39.3,187.1,99.00001,65.4,-6.8,5.9
8433,-61.9,40.1,-39.3,187.1,99.00001,65.4,-6.8,5.9
8470,-61.9,40.1,-39.3,187.1,99.00001,65.4,-6.8,5.9
8510,-61.9,40.1,-39.3,187.1,99.00001,65.4,-6.8,5.9
8551,-61.9,40.1,-39.3,187.1,99.00001,65.4,-6.8,5.9
8590,-61.9,40.1,-39.3,187.1,99.00001,65.4,-6.8,5.9
8630,-61.9,40.1,-39.3,187.1,99.00001,65.4,-6.8,5.9
8670,-61.9,40.1,-39.3,187.1,99.00001,65.4,-6.8,5.9
8714,-61.9,40.1,-39.3,187.1,99.00001,65.4,-6.8,5.9
8750,-61.9,40.1,-39.3,187.1,99.00001,65.4,-6.8,5.9
8790,-61.9,40.1,-39.3,187.1,99.00001,65.4,-6.8,5.9
8834,-61.9,40.1,-39.3,187.1,99.00001,65.4,-6.8,5.9
8870,-61.9,40.1,-39.3,187.1,99.00001,65.4,-6.8,5.9
8910,-61.9,40.1,-39.3,187.1,99.00001,65.4,-6.8,5.9
8949,-61.9,40.1,-39.3,187.1,99.00001,65.4,-6.8,5.9
8991,-61.9,40.1,-39.3,187.1,99.00001,65.4,-6.8,5.9
9030,-61.9,40.1,-39.3,187.1,99.00001,65.4,-6.8,5.9
9071,-61.9,40.1,-39.3,187.1,99.00001,65.4,-6.8,5.9
9111,-61.9,40.1,-39.3,187.1,99.00001,65.4,-6.8,5.9
9150,-61.9,40.1,-39.3,187.1,99.00001,65.4,-6.8,5.9
9191,-61.9,40.1,-39.3,187.1,99.00001,65.4,-6.8,5.9
9230,-61.9,40.1,-39.3,187.1,99.00001,65.4,-6.8,5.9
9271,-61.9,40.1,-39.3,187.1,99.00001,65.4,-6.8,5.9
9310,-61.9,40.1,-39.3,187.1,99.00001,65.4,-6.8,5.9
9350,-61.9,40.1,-39.3,187.1,99.00001,65.4,-6.8,5.9
9391,-61.9,40.1,-39.3,187.1,99.00001,65.4,-6.8,5.9
9430,-61.9,40.1,-39.3,187.1,99.00001,65.4,-6.8,5.9
9471,-61.9,40.1,-39.3,187.1,99.00001,65.4,-6.8,5.9
9516,-61.9,40.1,-39.3,187.1,99.00001,65.4,-6.8,5.9
9553,-61.9,40.1,-39.3,187.1,99.00001,65.4,-6.8,5.9
9590,-61.9,40.1,-39.3,187.1,99.00001,65.4,-6.8,5.9
9630,-61.9,40.1,-39.3,187.1,99.00001,65.4,-6.8,5.9
9672,-61.9,40.1,-39.3,187.1,99.00001,65.4,-6.8,5.9
9710,-61.9,40.1,-39.3,187.1,99.00001,65.4,-6.8,5.9
9750,-61.9,40.1,-39.3,187.1,99.00001,65.4,-6.8,5.9
9790,-61.9,40.1,-39.3,187.1,99.00001,65.4,-6.8,5.9
9832,-61.9,40.1,-39.3,187.1,99.00001,65.4,-6.8,5.9
9870,-61.9,40.1,-39.3,187.1,99.00001,65.4,-6.8,5.9
9911,-61.9,40.1,-39.3,187.1,99.00001,65.4,-6.8,5.9
9950,-61.9,40.1,-39.3,187.1,99.00001,65.4,-6.8,5.9
9989,-61.9,40.1,-39.3,187.1,99.00001,65.4,-6.8,5.9
10030,-61.9,40.1,-39.3,187.1,99.00001,65.4,-6.8,5.9
10070,-61.9,40.1,-39.3,187.1,99.00001,65.4,-6.8,5.9
10112,-61.9,40.1,-39.3,187.1,99.00001,65.4,-6.8,5.9
10150,-61.9,40.1,-39.3,187.1,99.00001,65.4,-6.8,5.9
10190,-61.9,40.1,-39.3,187.1,99.00001,65.4,-6.8,5.9
10230,-61.9,40.1,-39.3,187.1,99.00001,65.4,-6.8,5.9
10270,-61.9,40.1,-39.3,187.1,99.00001,65.4,-6.8,5.9
10310,-61.9,40.1,-39.3,187.1,99.00001,65.4,-6.8,5.9
10350,-61.9,40.1,-39.3,187.1,99.00001,65.4,-6.8,5.9
10393,-61.9,40.1,-39.3,187.1,99.00001,65.4,-6.8,5.9
10430,-61.9,40.1,-39.3,187.1,99.00001,65.4,-6.8,5.9
10470,-61.9,40.1,-39.3,187.1,99.00001,65.4,-6.8,5.9
10512,-61.9,40.1,-39.3,187.1,99.00001,65.4,-6.8,5.9
10551,-61.9,40.1,-39.3,187.1,99.00001,65.4,-6.8,5.9
10590,-61.9,40.1,-39.3,187.1,99.00001,65.4,-6.8,5.9
10638,-61.9,40.1,-39.3,187.1,99.00001,65.4,-6.8,5.9
10672,-61.9,40.1,-39.3,187.1,99.00001,65.4,-6.8,5.9
10710,-61.9,40.1,-39.3,187.1,99.00001,65.4,-6.8,5.9
10750,-61.9,40.1,-39.3,187.1,99.00001,65.4,-6.8,5.9
10791,-61.9,40.1,-39.3,187.1,99.00001,65.4,-6.8,5.9
10836,-61.9,40.1,-39.3,187.1,99.00001,65.4,-6.8,5.9
10870,-61.9,40.1,-39.3,187.1,99.00001,65.4,-6.8,5.9
10910,-61.9,40.1,-39.3,187.1,99.00001,65.4,-6.8,5.9
10953,-61.9,40.1,-39.3,187.1,99.00001,65.4,-6.8,5.9
10990,-61.9,40.1,-39.3,187.1,99.00001,65.4,-6.8,5.9
11030,-61.9,40.1,-39.3,187.1,99.00001,65.4,-6.8,5.9
11071,-61.9,40.1,-39.3,187.1,99.00001,65.4,-6.8,5.9
11111,-61.9,40.1,-39.3,187.1,99.00001,65.4,-6.8,5.9
11150,-61.9,40.1,-39.3,187.1,99.00001,65.4,-6.8,5.9
11190,-61.9,40.1,-39.3,187.1,99.00001,65.4,-6.8,5.9
11234,-61.9,40.1,-39.3,187.1,99.00001,65.4,-6.8,5.9
11270,-61.9,40.1,-39.3,187.1,99.00001,65.4,-6.8,5.9
11310,-61.9,40.1,-39.3,187.1,99.00001,65.4,-6.8,5.9
11352,-61.9,40.1,-39.3,187.1,99.00001,65.4,-6.8,5.9
11390,-61.9,40.1,-39.3,187.1,99.00001,65.4,-6.8,5.9
11430,-61.9,40.1,-39.3,187.1,99.00001,65.4,-6.8,5.9
11475,-61.9,40.1,-39.3,187.1,99.00001,65.4,-6.8,5.9
11513,-61.9,40.1,-39.3,187.1,99.00001,65.4,-6.8,5.9
11550,-61.9,40.1,-39.3,187.1,99.00001,65.4,-6.8,5.9
11590,-61.9,40.1,-39.3,187.1,99.00001,65.4,-6.8,5.9
11631,-61.9,40.1,-39.3,187.1,99.00001,65.4,-6.8,5.9
11670,-61.9,40.1,-39.3,187.1,99.00001,65.4,-6.8,5.9
11712,-61.9,40.1,-39.3,187.1,99.00001,65.4,-6.8,5.9
11750,-61.9,40.1,-39.3,187.1,99.00001,65.4,-6.8,5.9
11793,-61.9,40.1,-39.3,187.1,99.00001,65.4,-6.8,5.9
11833,-61.9,40.1,-39.3,187.1,99.00001,65.4,-6.8,5.9
11869,-61.9,40.1,-39.3,187.1,99.00001,65.4,-6.8,5.9
11911,-61.9,40.1,-39.3,187.1,99.00001,65.4,-6.8,5.9
11950,-61.9,40.1,-39.3,187.1,99.00001,65.4,-6.8,5.9
11990,-61.9,40.1,-39.3,187.1,99.00001,65.4,-6.8,5.9
12036,-61.9,40.1,-39.3,187.1,99.00001,65.4,-6.8,5.9
12073,-61.9,40.1,-39.3,187.1,99.00001,65.4,-6.8,5.9
12110,-61.9,40.1,-39.3,187.1,99.00001,65.4,-6.8,5.9
12150,-61.9,40.1,-39.3,187.1,99.00001,65.4,-6.8,5.9
12192,-61.9,40.1,-39.3,187.1,99.00001,65.4,-6.8,5.9
12230,-61.9,40.1,-39.3,187.1,99.00001,65.4,-6.8,5.9
12270,-61.9,40.1,-39.3,187.1,99.00001,65.4,-6.8,5.9
12315,-61.9,40.1,-39.3,187.1,99.00001,65.4,-6.8,5.9
12351,-61.9,40.1,-39.3,187.1,99.00001,65.4,-6.8,5.9
12390,-61.9,40.1,-39.3,187.1,99.00001,65.4,-6.8,5.9
12430,-61.9,40.1,-39.3,187.1,99.00001,65.4,-6.8,5.9
12471,-61.9,40.1,-39.3,187.1,99.00001,65.4,-6.8,5.9
12510,-61.9,40.1,-39.3,187.1,99.00001,65.4,-6.8,5.9
12550,-61.9,40.1,-39.3,187.1,99.00001,65.4,-6.8,5.9
12590,-61.9,40.1,-39.3,187.1,99.00001,65.4,-6.8,5.9
12633,-61.9,40.1,-39.3,187.1,99.00001,65.4,-6.8,5.9
12672,-61.9,40.1,-39.3,187.1,99.00001,65.4,-6.8,5.9
12710,-61.9,40.1,-39.3,187.1,99.00001,65.4,-6.8,5.9
12752,-61.9,40.1,-39.3,187.1,99.00001,65.4,-6.8,5.9
12790,-61.9,40.1,-39.3,187.1,99.00001,65.4,-6.8,5.9
12830,-61.9,40.1,-39.3,187.1,99.00001,65.4,-6.8,5.9
12870,-61.9,40.1,-39.3,187.1,99.00001,65.4,-6.8,5.9
12914,-61.9,40.1,-39.3,187.1,99.00001,65.4,-6.8,5.9
12950,-61.9,40.1,-39.3,187.1,99.00001,65.4,-6.8,5.9
12990,-61.9,40.1,-39.3,187.1,99.00001,65.4,-6.8,5.9
13033,-61.9,40.1,-39.3,187.1,99.00001,65.4,-6.8,5.9
13070,-61.9,40.1,-39.3,187.1,99.00001,65.4,-6.8,5.9
13110,-61.9,40.1,-39.3,187.1,99.00001,65.4,-6.8,5.9
13155,-61.9,40.1,-39.3,187.1,99.00001,65.4,-6.8,5.9
13191,-61.9,40.1,-39.3,187.1,99.00001,65.4,-6.8,5.9
13230,-61.9,40.1,-39.3,187.1,99.00001,65.4,-6.8,5.9
13270,-61.9,40.1,-39.3,187.1,99.00001,65.4,-6.8,5.9
13311,-61.9,40.1,-39.3,187.1,99.00001,65.4,-6.8,5.9
13350,-61.9,40.1,-39.3,187.1,99.00001,65.4,-6.8,5.9
13390,-61.9,40.1,-39.3,187.1,99.00001,65.4,-6.8,5.9
13430,-61.9,40.1,-39.3,187.1,99.00001,65.4,-6.8,5.9
13473,-61.9,40.1,-39.3,187.1,99.00001,65.4,-6.8,5.9
13510,-61.9,40.1,-39.3,187.1,99.00001,65.4,-6.8,5.9
13550,-61.9,40.1,-39.3,187.1,99.00001,65.4,-6.8,5.9
13592,-61.9,40.1,-39.3,187.1,99.00001,65.4,-6.8,5.9
13630,-61.9,40.1,-39.3,187.1,99.00001,65.4,-6.8,5.9
13670,-61.9,40.1,-39.3,187.1,99.00001,65.4,-6.8,5.9
13710,-61.9,40.1,-39.3,187.1,99.00001,65.4,-6.8,5.9
13754,-61.9,40.1,-39.3,187.1,99.00001,65.4,-6.8,5.9
13790,-61.9,40.1,-39.3,187.1,99.00001,65.4,-6.8,5.9
13830,-61.9,40.1,-39.3,187.1,99.00001,65.4,-6.8,5.9
13872,-61.9,40.1,-39.3,187.1,99.00001,65.4,-6.8,5.9
13910,-61.9,40.1,-39.3,187.1,99.00001,65.4,-6.8,5.9
13949,-61.9,40.1,-39.3,187.1,99.00001,65.4,-6.8,5.9
13989,-61.9,40.1,-39.3,187.1,99.00001,65.4,-6.8,5.9
14031,-61.9,40.1,-39.3,187.1,99.00001,65.4,-6.8,5.9
14070,-61.9,40.1,-39.3,187.1,99.00001,65.4,-6.8,5.9
14111,-61.9,40.1,-39.3,187.1,99.00001,65.4,-6.8,5.9
14149,-61.9,40.1,-39.3,187.1,99.00001,65.4,-6.8,5.9
14190,-61.9,40.1,-39.3,187.1,99.00001,65.4,-6.8,5.9
14233,-61.9,40.1,-39.3,187.1,99.00001,65.4,-6.8,5.9
14270,-61.9,40.1,-39.3,187.1,99.00001,65.4,-6.8,5.9
14313,-61.9,40.1,-39.3,187.1,99.00001,65.4,-6.8,5.9
14351,-61.9,40.1,-39.3,187.1,99.00001,65.4,-6.8,5.9
14390,-61.9,40.1,-39.3,187.1,99.00001,65.4,-6.8,5.9
14430,-61.9,40.1,-39.3,187.1,99.00001,65.4,-6.8,5.9
14471,-61.9,40.1,-39.3,187.1,99.00001,65.4,-6.8,5.9
14510,-61.9,40.1,-39.3,187.1,99.00001,65.4,-6.8,5.9
14550,-61.9,40.1,-39.3,187.1,99.00001,65.4,-6.8,5.9
14592,-61.9,40.1,-39.3,187.1,99.00001,65.4,-6.8,5.9
14631,-61.9,40.1,-39.3,187.1,99.00001,65.4,-6.8,5.9
14670,-61.9,40.1,-39.3,187.1,99.00001,65.4,-6.8,5.9
14713,-61.9,40.1,-39.3,187.1,99.00001,65.4,-6.8,5.9
14750,-61.9,40.1,-39.3,187.1,99.00001,65.4,-6.8,5.9
14790,-61.9,40.1,-39.3,187.1,99.00001,65.4,-6.8,5.9
14838,-61.9,40.1,-39.3,187.1,99.00001,65.4,-6.8,5.9
14871,-61.9,40.1,-39.3,187.1,99.00001,65.4,-6.8,5.9
14910,-61.9,40.1,-39.3,187.1,99.00001,65.4,-6.8,5.9
14950,-61.9,40.1,-39.3,187.1,99.00001,65.4,-6.8,5.9
14991,-61.9,40.1,-39.3,187.1,99.00001,65.4,-6.8,5.9
15030,-61.9,40.1,-39.3,187.1,99.00001,65.4,-6.8,5.9
15069,-61.9,40.1,-39.3,187.1,99.00001,65.4,-6.8,5.9
15110,-61.9,40.1,-39.3,187.1,99.00001,65.4,-6.8,5.9
15150,-61.9,40.1,-39.3,187.1,99.00001,65.4,-6.8,5.9
15190,-61.9,40.1,-39.3,187.1,99.00001,65.4,-6.8,5.9
15230,-61.9,40.1,-39.3,187.1,99.00001,65.4,-6.8,5.9
15271,-61.9,40.1,-39.3,187.1,99.00001,65.4,-6.8,5.9
15311,-61.9,40.1,-39.3,187.1,99.00001,65.4,-6.8,5.9
15350,-61.9,40.1,-39.3,187.1,99.00001,65.4,-6.8,5.9
15389,-61.9,40.1,-39.3,187.1,99.00001,65.4,-6.8,5.9
15433,-61.9,40.1,-39.3,187.1,99.00001,65.4,-6.8,5.9
15470,-61.9,40.1,-39.3,187.1,99.00001,65.4,-6.8,5.9
15510,-61.9,40.1,-39.3,187.1,99.00001,65.4,-6.8,5.8
15552,-61.9,40.1,-39.3,187.1,99.00001,65.4,-6.7,5.8
15590,-61.9,40.1,-39.3,187.1,99.00001,65.4,-6.6,5.6
15630,-61.9,40.1,-39.3,187.1,99.00001,65.4,-6.4,5.5
15670,-61.9,40.1,-39.3,187.1,99.00001,65.4,-6.1,5.4
15712,-61.9,40.1,-39.3,187.1,99.00001,65.4,-5.1,4.4
15751,-61.9,40.1,-39.3,187.1,99.00001,65.4,-4.4,3.9
15792,-61.9,40.1,-39.3,187.1,99.00001,65.4,-3.4,3.2
15831,-61.9,40.1,-39.3,187.1,99.00001,65.4,-2.8,2.8
15870,-61.9,40.1,-39.3,187.1,99.00001,65.4,-2.2,2.4
15912,-61.9,40.1,-39.3,187.1,99.00001,65.4,-1.7,2.1
15950,-61.9,40.1,-39.3,187.1,99.00001,65.4,-1,1.6
15997,-61.9,40.1,-39.3,187.1,99.00001,65.4,0,0.5
16032,-61.9,40.1,-39.3,187.1,99.00001,65.4,0.3,0.2
16070,-61.9,40.1,-39.3,187.1,99.00001,65.4,0.6,-0.1
16111,-61.9,40.1,-39.3,187.1,99.00001,65.4,0.6,-0.2
16150,-61.9,40.1,-39.3,187.1,99.00001,65.4,0.6,-0.1
16189,-61.9,40.1,-39.3,187.1,99.00001,65.4,0.5,0
16230,-61.9,40.1,-39.3,187.1,99.00001,65.4,0.5,0
16270,-61.9,40.1,-39.3,187.1,99.00001,65.4,0.6,-0.1
16310,-61.9,40.1,-39.3,187.1,99.00001,65.4,0.6,-0.2
16350,-61.9,40.1,-39.3,187.1,99.00001,65.4,0.6,-0.2
16392,-61.9,40.1,-39.3,187.1,99.00001,65.4,0.7,-0.3
16430,-61.9,40.1,-39.3,187.1,99.00001,65.4,0.7,-0.4
16470,-61.9,40.1,-39.3,187.1,99.00001,65.4,0.8,-0.5
16510,-61.9,40.1,-39.3,187.1,99.00001,65.4,0.8,-0.6
16550,-61.9,40.1,-39.3,187.1,99.00001,65.4,0.9,-0.6
16590,-61.9,40.1,-39.3,187.1,99.00001,65.4,0.9,-0.6
16630,-61.9,40.1,-39.3,187.1,99.00001,65.4,0.5,-0.6
16671,-61.9,40.1,-39.3,187.1,99.00001,65.4,0,-1.1
16710,-61.9,40.1,-39.3,187.1,99.00001,65.4,-0.6,-2.1
16750,-61.9,40.1,-39.3,187.1,99.00001,65.4,-0.7,-2.6
16790,-61.9,40.1,-39.3,187.1,99.00001,65.4,-0.7,-3
16831,-61.9,40.1,-39.3,187.1,99.00001,65.4,-0.6,-3.6
16870,-61.9,40.1,-39.3,187.1,99.00001,65.4,-0.6,-3.8
16910,-61.9,40.1,-39.3,187.1,99.00001,65.4,-0.6,-3.8
16951,-61.9,40.1,-39.3,187.1,99.00001,65.4,-0.6,-3.8
16992,-61.9,40.1,-39.3,187.1,99.00001,65.4,-0.6,-3.8
17029,-61.9,40.1,-39.3,187.1,99.00001,65.4,-0.6,-3.8
17070,-61.9,40.1,-39.3,187.1,99.00001,65.4,-0.6,-3.7
17112,-61.9,40.1,-39.3,187.1,99.00001,65.4,-0.6,-3.6
17150,-61.9,40.1,-39.3,187.1,99.00001,65.4,-0.6,-3.6
17190,-61.9,40.1,-39.3,187.1,99.00001,65.4,-0.7,-3.5
17233,-61.9,40.1,-39.3,187.1,99.00001,65.4,-0.7,-3.4
17270,-61.9,40.1,-39.3,187.1,99.00001,65.4,-0.8,-3.3
17309,-61.9,40.1,-39.3,187.1,99.00001,65.4,-0.8,-3.2
17358,-61.9,40.1,-39.3,187.1,99.00001,65.4,-0.6,-3
17390,-61.9,40.1,-39.3,187.1,99.00001,65.4,-0.6,-2.9
17430,-61.9,40.1,-39.3,187.1,99.00001,65.4,-0.6,-2.8
17470,-61.9,40.1,-39.3,187.1,99.00001,65.4,-0.6,-2.9
17510,-61.9,40.1,-39.3,187.1,99.00001,65.4,-0.6,-2.8
17550,-61.9,40.1,-39.3,187.1,99.00001,65.4,-0.6,-2.8
17590,-61.9,40.1,-39.3,187.1,99.00001,65.4,-0.6,-2.8
17630,-61.9,40.1,-39.3,187.1,99.00001,65.4,-0.6,-2.8
17670,-61.9,40.1,-39.3,187.1,99.00001,65.4,-0.6,-2.8
17712,-61.9,40.1,-39.3,187.1,99.00001,65.4,-0.6,-2.8
17750,-61.9,40.1,-39.3,187.1,99.00001,65.4,-0.6,-2.8
17791,-61.9,40.1,-39.3,187.1,99.00001,65.4,-0.6,-2.8
17833,-61.9,40.1,-39.3,187.1,99.00001,65.4,-0.6,-2.8
17870,-61.9,40.1,-39.3,187.1,99.00001,65.4,-0.6,-2.8
17910,-61.9,40.1,-39.3,187.1,99.00001,65.4,-0.6,-2.8
17952,-61.9,40.1,-39.3,187.1,99.00001,65.4,-0.6,-2.8
17990,-61.9,40.1,-39.3,187.1,99.00001,65.4,-0.6,-2.8
18030,-61.9,40.1,-39.3,187.1,99.00001,65.4,-0.6,-2.8
18072,-61.9,40.1,-39.3,187.1,99.00001,65.4,-0.6,-2.8
18110,-61.9,40.1,-39.3,187.1,99.00001,65.4,-0.6,-2.8
18150,-61.9,40.1,-39.3,187.1,99.00001,65.4,-0.6,-2.8
18197,-61.9,40.1,-39.3,187.1,99.00001,65.4,-0.6,-2.8
18230,-61.9,40.1,-39.3,187.1,99.00001,65.4,-0.6,-2.8
18270,-61.9,40.1,-39.3,187.1,99.00001,65.4,-0.6,-2.8
18310,-61.9,40.1,-39.3,187.1,99.00001,65.4,-0.6,-2.8
18351,-61.9,40.1,-39.3,187.1,99.00001,65.4,-0.6,-2.8
18390,-61.9,40.1,-39.3,187.1,99.00001,65.4,-0.6,-2.8
18430,-61.9,40.1,-39.3,187.1,99.00001,65.4,-0.6,-2.8
18469,-61.9,40.1,-39.3,187.1,99.00001,65.4,-0.6,-2.8
18512,-61.9,40.1,-39.3,187.1,99.00001,65.4,-0.6,-2.8
18549,-61.9,40.1,-39.3,187.1,99.00001,65.4,-0.6,-2.8
18590,-61.9,40.1,-39.3,187.1,99.00001,65.4,-0.6,-2.8
18630,-61.9,40.1,-39.3,187.1,99.00001,65.4,-0.6,-2.8
18672,-61.9,40.1,-39.3,187.1,99.00001,65.4,-0.6,-2.8
18710,-61.9,40.1,-39.3,187.1,99.00001,65.4,-0.6,-2.8
18751,-61.9,40.1,-39.3,187.1,99.00001,65.4,-0.6,-2.8
18793,-61.9,40.1,-39.3,187.1,99.00001,65.4,-0.6,-2.8
18830,-61.9,40.1,-39.3,187.1,99.00001,65.4,-0.6,-2.8
18870,-61.9,40.1,-39.3,187.1,99.00001,65.4,-0.6,-2.8
18912,-61.9,40.1,-39.3,187.1,99.00001,65.4,-0.6,-2.8
18950,-61.9,40.1,-39.3,187.1,99.00001,65.4,-0.6,-2.8
18990,-61.9,40.1,-39.3,187.1,99.00001,65.4,-0.6,-2.8
19030,-61.9,40.1,-39.3,187.1,99.00001,65.4,-0.6,-2.8
19076,-61.9,40.1,-39.3,187.1,99.00001,65.4,-0.6,-2.8
19109,-61.9,40.1,-39.3,187.1,99.00001,65.4,-0.6,-2.8
19151,-61.9,40.1,-39.3,187.1,99.00001,65.4,-0.6,-2.8
19191,-61.9,40.1,-39.3,187.1,99.00001,65.4,-0.6,-2.8
19230,-61.9,40.1,-39.3,187.1,99.00001,65.4,-0.6,-2.8
19271,-61.9,40.1,-39.3,187.1,99.00001,65.4,-0.6,-2.8
19315,-61.9,40.1,-39.3,187.1,99.00001,65.4,-0.6,-2.8
19350,-61.9,40.1,-39.3,187.1,99.00001,65.4,-0.6,-2.8
19390,-61.9,40.1,-39.3,187.1,99.00001,65.4,-0.6,-2.8
19430,-61.9,40.1,-39.3,187.1,99.00001,65.4,-0.6,-2.8
19471,-61.9,40.1,-39.3,187.1,99.00001,65.4,-0.6,-2.8
19511,-61.9,40.1,-39.3,187.1,99.00001,65.4,-0.6,-2.8
19550,-61.9,40.1,-39.3,187.1,99.00001,65.4,-0.6,-2.8
19590,-61.9,40.1,-39.3,187.1,99.00001,65.4,-0.6,-2.8
19633,-61.9,40.1,-39.3,187.1,99.00001,65.4,-0.6,-2.8
19670,-61.9,40.1,-39.3,187.1,99.00001,65.4,-0.6,-2.8
19710,-61.9,40.1,-39.3,187.1,99.00001,65.4,-0.6,-2.8
19752,-61.9,40.1,-39.3,187.1,99.00001,65.4,-0.6,-2.8
19790,-61.9,40.1,-39.3,187.1,99.00001,65.4,-0.6,-2.8
19830,-61.9,40.1,-39.3,187.1,99.00001,65.4,-0.6,-2.8
0,0,0,0,0,0,0,0,0
0,0,0,0,0,0,0,0,0
