Times,X pos,Y pos,X Vel,Y vel,Pwmx,Pwmy,M1 Angle,M2 Angle 
1,-2,1.2,0.5,-0.1,-0.4,6.6,-1.4,-3.9
36,-1.8,1.4,0.3,0.4,-0.6,5.3,-1.4,-3.9
87,-0.4,2.6,1.6,1,2.6,4.3,-1.4,-3.9
117,-0.1,3.1,0.6,0.8,3.1,3.2,-1.4,-3.9
175,2.4,6.8,0.8,3.1,25.4,-0.5,-1.4,-3.9
206,3.5,8.9,1.8,3.4,27.2,0.3,-1.4,-3.9
238,3.8,11.8,0.5,4.8,28.4,-2.3,-1.4,-3.8
291,6.4,15.8,1.6,4.9,32.8,-5.4,-1.4,-3.9
320,6.2,17.1,-0.3,2.3,31,-1.2,-1.4,-3.9
359,7.6,22.9,1.1,4.2,35.5,-4.6,-1.4,-3.9
416,8.4,26.8,-0.4,1,34.1,-3.2,-1.4,-3.8
438,8.4,26.8,-0.4,1,34.1,-3.2,-1.4,-3.8
480,8.5,30.9,0.2,6.9,43.7,-4.5,-1.4,-3.8
517,8.5,30.9,0.2,6.9,43.7,-4.5,-1.4,-3.8
568,7.8,35.7,-0.7,1.1,38,-0.8,-1.4,-3.5
602,7.3,36,-1,0.2,37.3,-3.1,-1.2,-3.2
657,5.8,35.1,-1.7,-1.2,37,-1,-1.2,-3
683,5.8,35.1,-1.7,-1.2,35.8,1.3,-1.2,-3
718,5.8,35.1,-1.7,-1.2,35.8,1.3,-1.2,-2.9
777,-1.2,27.6,-4,-4.3,32.9,6,-1.2,-2.9
812,-2.2,25.2,-1.5,-4,29.4,27.8,-1.4,-2.9
839,-3,22,-1.5,-5.2,29.2,25.9,-1.4,-2.8
877,-3.9,21.2,-1.5,-1.4,29,26.7,-1.6,-2.8
928,-7.5,13.4,-1.4,-4.5,-3.7,30.9,-1.8,-2.7
956,-7.5,13.4,-1.4,-4.5,2.3,28,-1.8,-2.7
999,-9,8,-2.5,-8.9,2.3,28,-2,-2.7
1049,-9.6,3.7,-1,-7.3,-33.2,28.8,-2.1,-2.7
1078,-8.9,-1,1.3,-7.8,-33.2,28.8,-2.1,-2.7
1132,-8.2,-1.9,1.2,-1.5,-30.1,25.1,-2.2,-2.9
1164,-7.5,-3.3,1.1,-2.5,-31.7,25.6,-2.2,-2.9
1201,-6.5,-2.8,1.6,0.5,-4.8,26.7,-2.2,-2.9
1237,-5.7,-2.3,1.5,0.9,-4.3,6.4,-2.2,-2.9
1287,-2.4,-0.8,2.5,1,-0.6,1.5,-2.2,-2.9
1324,-1.3,-0.2,1.8,1.1,-0.9,0.2,-2.2,-2.8
1376,4.6,3.5,3.5,1.6,26.2,-32.6,-2.2,-2.9
1408,7.3,5.3,4.5,3,4.5,-30.8,-2.2,-2.9
1443,11,8,6.3,4.4,26.1,-33,-2.1,-2.8
1478,11.6,8.4,1,0.6,6.2,-31.1,-2,-2.6
1532,17.5,12.1,2.4,2,29.8,-39.7,-1.9,-2.6
1557,19.4,12.3,3.2,0.2,28.2,-35.9,-1.9,-2.6
1619,22,12.2,1.5,-0.3,25.7,-36.4,-1.8,-2.3
1644,22.1,-3,0.2,-25.4,-60.2,-35.2,-1.8,-2.1
1677,23.2,7.8,-1.1,-3.4,53.7,-39.1,-1.7,-2.1
1733,23.2,2.5,0,-8.9,-35.6,-37.7,-1.5,-3.2
1765,23.2,10.3,0,13,37.9,-32.9,-1.2,-2.6
1799,20.7,4.1,-4.1,-10.3,-36,-32,-1.1,-2.4
1838,20.7,4.1,-4.1,-10.3,-36,-32,-0.9,-2.6
1891,11.1,0.2,-7.3,-2.3,-30.7,3.4,-0.7,-2.8
1918,7.6,-0.2,-5.9,-0.8,-6.3,25.3,-0.6,-2.8
1956,3.7,-1.3,-4.4,-2,-0.1,1.4,-0.8,-2.8
2004,-2.5,-1.8,-6.1,-0.4,-3.2,27.1,-0.9,-2.6
2037,-6.1,-2,-6.1,-0.3,-3,30,-0.9,-2.6
2093,-10.1,-2,-4.5,0.3,-2.1,32.2,-1.3,-2.4
2119,-11.4,-2.3,-2.2,-0.4,-3.8,30.4,-1.3,-2.4
2161,-15.6,-2.5,-7.1,-0.4,-3.8,30.4,-1.5,-2.4
2200,-16.8,-2.3,-2,0.4,-4.5,37,-1.6,-2.3
2252,-19.7,-2.3,-1.2,0.1,-3.5,35.2,-1.7,-2.3
2278,-19.7,-2.1,0,0.3,-2.9,33.1,-1.9,-2.2
2340,-19.9,-1.9,0.1,0.2,-3,32.4,-2.3,-2
2375,-19.2,-1.6,0.7,0.2,-3,31.4,-2.4,-2
2399,-18.3,-1.4,1.5,0.4,-3.4,30.8,-2.4,-2
2458,-15.7,-0.6,2.7,0.8,-2.6,29.1,-2.4,-2
2485,-14,-0.6,2.9,0,-1.4,27.3,-2.5,-2
2518,-12.9,-0.6,1.8,0,-3.2,26.9,-2.6,-2
2557,-11.1,0.1,3,1.1,-0.3,6.8,-2.6,-2
2607,-3.2,1.1,5.3,0.3,1.3,-30.7,-2.6,-2
2637,-3.2,1.1,5.3,0.3,-0.9,-5.9,-2.5,-2
2677,4.3,3,2.1,2.4,-1.6,-37.1,-2.5,-2
2726,11.9,2.8,6.2,0.2,0.1,-35.7,-2.2,-1.9
2759,14.7,3.5,4.6,1.2,-2.1,-37.2,-2.4,-1.9
2812,19.3,3.9,2.4,0.5,0.1,-37,-2.2,-1.9
2842,21.5,4.4,3.7,0.9,4.2,-39,-2.1,-1.9
2878,25.1,5.8,2.7,1.4,4.4,-39.6,-2.1,-1.9
2917,25.6,7.2,0.9,2.3,6.4,-39.8,-2.1,-1.9
2967,27.4,7.8,0.9,0.4,6.3,-39.8,-2.1,-1.9
3004,28,8.3,0.4,0.4,6.5,-38.9,-2.1,-1.8
3054,27.1,8.7,-1.2,0.4,6.9,-38.3,-2,-1.9
3089,26,9.2,-2,0.8,25.1,-36.9,-2,-1.8
3119,25.4,9.9,-1,1.2,26.4,-36.2,-2,-1.8
3170,23.2,11.5,-2.2,1.9,27.7,-34,-2,-1.7
3215,19.5,12.1,-2.2,0.7,26.2,-31.3,-1.9,-1.6
3237,17,12.5,-4.2,0.7,26.9,-32.5,-1.9,-1.6
3293,13,12.8,-4.3,0.3,26.9,-1.9,-1.9,-1.5
3326,7.8,12.8,-4.9,-0.1,26.5,-0.6,-1.9,-1.4
3357,5.3,12.5,-4.1,-0.4,26.6,4.5,-2.1,-1.4
3413,2.4,11.2,-1.4,-0.9,6.7,2.1,-2.1,-1.4
3439,1.3,9.4,-2,-2.9,0.8,4.6,-2.1,-1.4
3477,-1.1,7.2,-1.4,-1.7,1.6,6.9,-2.1,-1.4
3537,-1.7,3.3,-0.1,-2.8,-5.1,5.3,-2.1,-1.5
3565,-1.7,2.8,0,-0.8,-1.3,3.5,-2.1,-1.4
3601,-1.2,0.4,0.6,-2.7,-3.2,2.6,-2.1,-1.4
3652,0,-1.4,0.9,-1.3,-6.4,-0.2,-2.1,-1.4
3684,1.4,-1.9,2.4,-0.8,-6.9,-1,-2.1,-1.6
3718,2.4,-2.5,1.6,-0.9,-6.6,-2.9,-2.1,-1.5
3757,2.9,-3,0.8,-0.9,-30.1,-1.6,-2.1,-1.4
3808,8.4,-5.1,3.2,-1.3,-32,-35.2,-2.1,-1.6
3842,10.6,-5.5,3.6,-0.6,-31.5,-33,-2.1,-1.6
3892,14,-6.1,3.6,-0.5,-31.2,-36,-1.9,-1.7
3929,17.4,-6.2,2.5,0.4,-31.3,-36,-1.9,-1.7
3957,20.7,-6.9,5.6,-1.1,-30.2,-36.2,-1.9,-1.7
4020,25.8,-6.3,3.7,0.9,-30.9,-41.3,-1.8,-1.7
4041,26.5,-6.1,1.1,0.4,-30.2,-39,-1.8,-1.7
4079,30.2,-5.7,2.7,0.9,-31,-42.3,-1.8,-1.7
4138,33.7,-4.8,2.4,1,-4.9,-43.4,-1.7,-1.8
4160,34.5,-4.1,1.5,1,-4.9,-43.4,-1.6,-1.6
4200,37.4,-2.6,4.8,2.5,-4.9,-43.4,-1.6,-1.7
4237,38.1,-1.6,1.2,1.7,0.7,-45.3,-1.6,-1.6
4285,39.1,-0.4,0.5,1,-0.9,-44.5,-1.6,-1.7
4318,39.1,-0.2,0,0.3,-1.2,-43.6,-1.6,-1.7
4356,38.7,1.4,-0.5,2,-0.3,-43.1,-1.6,-1.7
4408,37.9,2.8,-0.9,1.3,2.2,-42.9,-1.6,-1.7
4437,37,3.6,-1.5,1.4,3.8,-42.2,-1.6,-1.7
4477,35.6,3.8,-1.5,0.3,2,-41.5,-1.6,-1.7
4519,34.1,4.3,-2.4,0.8,4.2,-38.9,-1.6,-1.7
4558,32.9,4.7,-2,0.7,4.4,-38.8,-1.6,-1.7
4619,29.1,5.6,-1.1,0.8,5.4,-38,-1.6,-1.7
4639,28.6,5.5,-0.9,-0.1,3.4,-37.9,-1.6,-1.7
4682,28.8,4.9,0.5,-1,0.8,-39.3,-1.6,-1.7
4736,23.9,6.5,-1.5,0.5,26,-30.6,-1.6,-1.7
4758,23.9,6.5,-1.5,0.5,26,-30.6,-1.6,-1.7
4796,21.7,7.6,-3.7,1.8,26.2,-32.1,-1.6,-1.5
4859,20.8,6.2,0.3,-1,3.1,-34.4,-1.5,-1.4
4884,20.6,5.8,-0.4,-0.6,2.2,-35.7,-1.5,-1.4
4917,20.4,5.4,-0.3,-0.8,1.7,-35.1,-1.5,-1.5
4982,22.7,3.5,1.3,-0.8,0,-37.3,-1.5,-1.5
5005,23.8,2.9,1.7,-0.9,0.2,-37.4,-1.5,-1.5
5036,24.8,2.4,1.6,-0.9,-0.8,-38.5,-1.5,-1.5
5076,25.2,1.5,0.7,-0.8,-1,-37.2,-1.5,-1.5
5121,25.1,1,-0.2,-0.8,-2.4,-37.2,-1.5,-1.5
5157,25.5,0.2,0.5,-1.1,-1.3,-37.5,-1.5,-1.5
5209,27.3,-0.8,1.4,-0.6,-4.4,-39.6,-1.5,-1.5
5245,28,-0.9,1.2,-0.2,-3.1,-39.8,-1.5,-1.5
5278,28.9,-1.8,0.6,-0.7,-4.9,-39.7,-1.5,-1.5
5336,29.6,-2.5,0.4,-0.5,-5.1,-40,-1.5,-1.5
5358,29.6,-2.5,0.4,-0.5,-5.1,-40,-1.5,-1.5
5399,29.6,-2.5,0.4,-0.5,-5.1,-40,-1.5,-1.5
5438,29.6,-2.5,0.4,-0.5,-5.1,-40,-1.5,-1.5
5490,33.2,-3.5,0.3,0.5,-31.3,-43.2,-1.5,-1.5
5525,33.3,-3.2,0.4,-0.1,-4.1,-41.2,-1.5,-1.5
5556,33.7,-2.5,0.6,1.2,-5.3,-41.5,-1.4,-1.7
5609,33.3,-1.6,-0.3,0.8,-2.3,-40.8,-1.3,-1.5
5637,33.2,-1.3,-0.2,0.5,-1.3,-40.7,-1.3,-1.6
5689,33,-0.8,-0.5,0.5,-1.3,-40.6,-1.3,-1.6
5732,32.8,-0.2,-0.2,0.5,-0.9,-40.5,-1.3,-1.6
5757,32.6,-0.2,-0.4,0,-0.7,-40.7,-1.3,-1.6
5803,32.4,-0.1,-0.3,0.2,-1.7,-40.3,-1.3,-1.6
5837,32.4,-0.1,-0.3,0.2,-1.7,-40.3,-1.3,-1.6
5878,32.4,-0.1,-0.3,0.2,-1.7,-40.3,-1.3,-1.6
5917,32.2,-0.4,-0.5,-0.5,-1.7,-40.3,-1.3,-1.6
5989,32.3,-0.6,0.3,0,-2.1,-40.8,-1.3,-1.6
6000,32.4,-0.6,0.2,-0.1,-2.1,-40.8,-1.3,-1.6
6037,32.5,-0.7,0.1,-0.2,-2.3,-40.8,-1.3,-1.6
6086,32.5,-0.7,0.2,0.2,-2.5,-40.4,-1.3,-1.6
6117,32.2,-0.8,-0.5,-0.2,-2.8,-40,-1.3,-1.6
6157,32.4,-0.9,0.5,0.1,-2.8,-40.5,-1.3,-1.6
6204,32.2,-0.8,0,0.2,-2.7,-40,-1.3,-1.6
6239,32.2,-0.9,0,-0.2,-2,-40.5,-1.3,-1.6
6276,32.3,-0.9,0.2,0,-2.4,-40.5,-1.3,-1.6
6320,32.2,-0.8,-0.2,0.2,-1.9,-40.3,-1.3,-1.6
6365,32.2,-0.8,0.2,0.1,-2.6,-40.2,-1.3,-1.6
6413,32.2,-0.9,-0.5,0,-2.4,-40,-1.3,-1.6
6439,32.2,-0.9,0,0,-2.4,-40.5,-1.3,-1.6
6476,32.2,-0.9,0,-0.1,-2.4,-40.5,-1.3,-1.6
6517,32,-0.9,-0.2,0.1,-2.5,-40.5,-1.3,-1.6
6564,32.2,-0.8,0.2,0.1,-2.2,-40.7,-1.3,-1.6
6606,32.3,-0.9,0.5,-0.1,-2.7,-40,-1.3,-1.6
6660,32,-0.9,0,-0.1,-1.9,-40.1,-1.3,-1.6
6688,31.9,-0.9,-0.3,-0.1,-2.4,-40.4,-1.3,-1.6
6717,32,-0.8,0.3,0.2,-1.9,-40.7,-1.3,-1.6
6785,32,-0.9,-0.1,0,-2.3,-40.8,-1.3,-1.6
6804,32.2,-0.9,0.2,0,-2.3,-40.3,-1.3,-1.6
6836,32,-0.9,-0.2,-0.1,-2.4,-40.7,-1.3,-1.6
6894,32,-0.9,-0.2,-0.2,-2.8,-40.3,-1.3,-1.6
6928,32,-0.9,0.1,0.1,-2.3,-40.3,-1.3,-1.6
6958,32.2,-0.9,0.2,0,-2.2,-40.5,-1.3,-1.6
7014,32.2,-0.9,0,0,-2.3,-40.5,-1.3,-1.6
7042,31.9,-0.9,-0.4,-0.1,-2.5,-40,-1.3,-1.6
7078,32.1,-0.9,-0.1,-0.1,-2.1,-40.8,-1.3,-1.6
7117,32,-0.9,-0.1,0.1,-2.7,-40.4,-1.3,-1.6
7167,32.2,-0.8,0.7,0.1,-2.1,-41.2,-1.3,-1.6
7204,32.1,-0.8,-0.1,0.1,-2.6,-40.5,-1.3,-1.6
7253,32.2,-0.8,0,0.1,-2.7,-40.5,-1.3,-1.6
7289,32,-0.9,-0.3,-0.1,-2.5,-40.1,-1.3,-1.6
7317,31.9,-0.9,-0.1,0,-2.3,-40.3,-1.3,-1.6
7370,32,-0.9,0,0.1,-2.2,-40.4,-1.3,-1.6
7404,32.2,-0.8,0.4,0.1,-2.3,-40.3,-1.3,-1.6
7436,31.9,-1,-0.4,-0.2,-2.2,-40.8,-1.3,-1.6
7501,32,-0.8,0.1,0,-1.9,-40.5,-1.3,-1.6
7529,32.1,-0.8,0.1,-0.1,-2.3,-40.5,-1.3,-1.6
7559,32,-0.9,-0.1,-0.1,-2.4,-40.5,-1.3,-1.6
7627,32,-0.8,0.3,0,-2.3,-40.3,-1.3,-1.6
7643,32,-0.8,0.3,0,-2.3,-40.7,-1.3,-1.6
7677,32,-0.9,0.1,-0.1,-2.4,-40.3,-1.3,-1.6
7717,32,-0.8,-0.1,0.2,-2.7,-40.5,-1.3,-1.6
7767,32.1,-0.9,0.1,-0.2,-2.3,-40.5,-1.3,-1.6
7801,32,-0.8,0.1,0.2,-2.5,-40.1,-1.3,-1.6
7837,31.9,-0.8,-0.1,0,-1.9,-40.5,-1.3,-1.6
7885,31.8,-0.8,0,0.1,-2.4,-40.1,-1.3,-1.6
7920,32,-0.9,0.3,-0.1,-2.6,-40.7,-1.3,-1.6
7978,31.9,-0.7,-0.3,0.2,-1.9,-40.6,-1.3,-1.6
8009,32.2,-0.9,0.4,-0.3,-1.8,-40.1,-1.3,-1.6
8041,32,-0.8,-0.3,0.2,-2.9,-40.8,-1.3,-1.6
8092,31.9,-0.9,-0.2,-0.1,-2.5,-40.2,-1.3,-1.6
8128,31.7,-0.9,-0.5,-0.1,-2.2,-40.5,-1.3,-1.6
8157,31.6,-0.8,-0.1,0.1,-2.5,-39.7,-1.3,-1.6
8216,32,-0.9,0,-0.2,-2.7,-40.4,-1.3,-1.6
8243,31.8,-0.9,-0.4,0,-2.4,-40,-1.3,-1.6
8277,31.9,-0.9,0,0,-2.2,-40.6,-1.3,-1.6
8340,31.9,-0.9,-0.3,-0.2,-1.9,-40.7,-1.3,-1.6
8367,32,-0.8,0.1,0.1,-2,-40.5,-1.3,-1.6
8401,31.9,-0.9,0.1,0,-2.9,-40.1,-1.3,-1.6
8453,31.9,-0.8,0,0.1,-2.3,-40.3,-1.3,-1.6
8480,31.9,-0.9,0,-0.1,-2.1,-40.3,-1.3,-1.6
8517,31.9,-0.9,0,0,-2.4,-40.4,-1.3,-1.6
8557,31.9,-0.9,0,-0.1,-2.2,-40.5,-1.3,-1.6
8607,31.8,-0.9,0,-0.1,-2.1,-40.2,-1.3,-1.6
8639,31.9,-0.8,0.1,0.2,-2.6,-40.3,-1.3,-1.6
8691,31.7,-0.9,-0.5,0,-2.3,-39.8,-1.3,-1.6
8726,31.9,-0.8,-0.1,0.2,-2.7,-40.8,-1.3,-1.6
8759,31.9,-0.9,0,-0.1,-1.8,-40.3,-1.3,-1.6
8818,31.7,-1,-0.4,-0.2,-3,-39.9,-1.3,-1.6
8844,31.8,-0.9,0.1,0.2,-2,-40.4,-1.3,-1.6
8881,31.9,-0.9,0.2,-0.1,-2.2,-40.4,-1.3,-1.6
8934,32,-0.9,0.3,0.1,-2.4,-40.3,-1.3,-1.6
8968,31.8,-0.8,-0.4,0.1,-2,-40,-1.3,-1.6
8996,31.6,-0.8,-0.4,0,-2.3,-39.9,-1.3,-1.6
9058,31.9,-0.8,0.1,0.1,-2.3,-40.3,-1.3,-1.6
9084,31.8,-0.8,-0.3,0,-2.2,-40.5,-1.3,-1.6
9117,31.9,-0.9,0.2,-0.1,-2.5,-40.5,-1.3,-1.6
9179,31.9,-0.8,0.1,0,-2.1,-40.3,-1.3,-1.6
9208,32,-0.9,0.1,-0.1,-2.3,-40.5,-1.3,-1.6
9237,31.8,-0.9,-0.4,-0.1,-2.5,-40.5,-1.3,-1.6
9276,31.7,-0.8,-0.3,0.2,-2.5,-39.9,-1.3,-1.6
9325,32,-0.9,0.2,-0.1,-2.7,-40.6,-1.3,-1.6
9358,31.9,-0.9,-0.2,0,-2.5,-40.6,-1.3,-1.6
9415,31.8,-0.9,0.2,-0.1,-2.5,-40.5,-1.3,-1.6
9444,31.7,-0.8,-0.2,0.1,-2,-40.1,-1.3,-1.6
9478,31.9,-0.9,0.1,0.1,-2.8,-40.5,-1.3,-1.6
9517,31.7,-0.8,-0.3,0.1,-2.2,-40.4,-1.3,-1.6
9565,31.9,-0.9,0.3,-0.1,-2.6,-40.6,-1.3,-1.6
9602,31.7,-0.9,-0.2,-0.2,-1.7,-40.2,-1.3,-1.6
9637,31.8,-0.9,0.2,-0.1,-2.7,-40.1,-1.3,-1.6
9693,31.8,-0.8,0.2,0.2,-2.4,-40.1,-1.3,-1.6
9721,31.4,-0.9,-0.7,-0.1,-1.9,-40.5,-1.3,-1.6
9757,31.9,-0.8,0.5,0.1,-2.5,-40.6,-1.3,-1.6
9808,31.7,-0.9,-0.1,-0.2,-2,-40.1,-1.3,-1.6
9836,31.8,-0.8,0.2,0.1,-2.7,-40.2,-1.3,-1.6
9894,31.7,-1,0.2,-0.2,-3,-40.5,-1.3,-1.6
9932,31.7,-0.8,0,0.1,-2,-40.3,-1.3,-1.6
9957,31.8,-0.6,0.2,0.3,-2.2,-40.3,-1.3,-1.6
10020,31.7,-0.9,-0.2,-0.3,-3,-40.1,-1.3,-1.6
10044,31.7,-0.8,0.1,0.2,-1.9,-40.4,-1.3,-1.6
10082,31.9,-0.8,0,-0.1,-1.9,-40.6,-1.3,-1.6
10135,31.7,-0.8,-0.1,0,-2.4,-40,-1.3,-1.6
10164,31.7,-0.9,0.1,-0.2,-2.8,-40.4,-1.3,-1.6
10201,31.8,-0.9,0.5,-0.1,-1.9,-39.9,-1.3,-1.6
10237,31.7,-0.8,-0.3,0.1,-2.4,-40.8,-1.3,-1.6
10287,31.6,-0.9,0.3,-0.2,-2.3,-39.8,-1.3,-1.6
10318,31.6,-0.8,-0.1,0.2,-2.8,-40.5,-1.3,-1.6
10357,31.7,-0.9,-0.1,-0.1,-2.4,-40.7,-1.3,-1.6
10406,31.6,-0.8,-0.1,-0.1,-2,-40,-1.3,-1.6
10439,31.5,-0.8,-0.1,0.1,-2.4,-40.1,-1.3,-1.6
10477,31.7,-0.9,0.1,-0.1,-2.3,-40.5,-1.3,-1.6
10518,31.6,-0.8,-0.2,0.1,-2,-40,-1.3,-1.6
10561,31.5,-0.8,-0.1,0.1,-2.8,-40.1,-1.3,-1.6
10614,31.7,-0.9,0.2,-0.1,-2.4,-40.4,-1.3,-1.6
10644,31.6,-0.8,-0.2,0.2,-1.9,-40,-1.3,-1.6
10677,29.2,-0.4,-1.5,0.2,-1.1,-37.2,-1.3,-1.6
10736,26.8,-0.7,-2.4,-0.5,-1.7,-37.1,-1.3,-1.6
10764,25.6,-0.6,-2,0.1,-1.8,-35.6,-1.3,-1.6
10805,22.9,-1.5,-2.2,-0.8,-3.9,-34.7,-1.3,-1.6
10860,19.3,-1.4,-3.4,0.5,-3.6,-33,-1.3,-1.6
10887,17.1,-1.2,-3.6,0.3,-1.8,-31.4,-1.3,-1.6
10938,15.7,-0.6,0.2,0.1,-1.9,-33.2,-1.3,-1.6
10957,15.1,-0.2,-1,0.6,-1.9,-33.2,-1.3,-1.6
11002,14.3,-0.1,-1.4,0.2,-1,-31.1,-1.3,-1.6
11037,14.3,-0.1,-1.4,0.2,-1,-31.1,-1.3,-1.6
11077,14.3,-0.1,-1.4,0.2,-1,-31.1,-1.3,-1.6
11126,14.7,2.5,0.8,4.3,-1,-31.1,-1.3,-1.6
11159,15.1,2.3,0.5,-0.3,26.4,-33.4,-1.3,-1.6
11215,16.1,2.6,0.7,-0.1,0.9,-33.6,-1.3,-1.5
11239,17.5,2.8,2.4,0.3,1.6,-36.5,-1.3,-1.4
11279,20,2.5,1.8,-0.2,0.9,-36.7,-1.2,-1.5
11317,21.4,2.8,2.4,0.5,0.7,-36.7,-1.2,-1.4
11367,24.5,2.4,1.2,-0.2,0.1,-40.6,-1.2,-1.4
11421,25.7,3.1,1,0.9,3.5,-38.7,-1.2,-1.4
11453,26.7,3.4,1.1,-0.1,3.3,-38.2,-1.2,-1.4
11488,27.9,3.6,2,0.3,1.9,-39.1,-1.2,-1.4
11517,28.3,3.7,0.8,0.1,2.5,-39.6,-1.2,-1.4
11569,29.5,3.6,0.8,0.1,2.4,-40.2,-1.2,-1.4
11605,30.4,3.4,0.4,-0.4,2,-40.7,-1.2,-1.4
11638,30.9,3.3,0.8,-0.2,1,-40.1,-1.2,-1.4
11701,31.7,3,0.4,0.3,1.2,-41,-1.2,-1.4
11728,32.4,2.6,1.2,-0.7,2.2,-40.7,-1.2,-1.4
11758,32.2,-11.4,-0.4,-23.4,-0.3,-41.8,-1.2,-1.4
11802,32.2,-11.4,-0.4,-23.4,-62.8,-40.2,-1.2,-1.4
11856,31.5,-0.9,-0.9,-0.8,38.8,-42.1,-1,-2.9
11877,31.5,-0.9,-0.9,-0.8,-6.1,-43.6,-1,-2.9
11939,29.6,3,-1.7,5,-0.9,-38.5,0,-4.4
11965,29.4,3.5,-0.5,0.9,4.7,-37.2,0,-4.5
11998,28.3,4.8,-1.8,2,25.9,-35.5,0,-4.5
12056,24,11.7,-3.2,5.4,31.6,-32,0,-4.4
12084,21.8,13.6,-3.7,3.2,32.3,-32.2,0,-4.3
12118,20.3,16,-2.4,3.9,32.9,-31.2,0,-4.2
12157,19.4,17.6,-1.5,2.7,32.4,-31.7,0,-4.1
12210,14.7,22.7,-2.9,2.2,37.6,-0.7,0,-3.9
12242,12.9,25.5,-3.1,4.7,34.1,-3.6,0,-3.9
12293,10.6,27.4,-2.1,2,36.1,-0.4,-0.1,-3.6
12318,10.6,27.4,-2.1,2,36.1,-0.4,-0.1,-3.4
12357,6.6,31.5,-1.9,1.6,41.3,25.1,-0.1,-3.2
12401,2.9,34,-6.2,4.1,37.5,1.9,-0.1,-3.1
12443,2.4,34.6,-0.8,1,38.7,4,-0.2,-2.9
12476,-0.7,35.6,-2.9,0.7,38.3,25.4,-0.3,-2.7
12539,-6.4,39.7,-6.2,4,43.9,27.7,-0.4,-2.4
12566,-7.6,40.2,-2.1,0.9,42.4,28.8,-0.8,-2.2
12601,-13.7,43.6,-4.8,3.4,46.7,33.7,-1,-2
12653,-17.6,44.9,-6.5,2,50,38.2,-1.4,-1.7
12680,-25.5,48.4,-13.1,5.8,50,38.2,-2.1,-1
12717,-29.9,49.5,-7.3,1.8,55.3,52.1,-2.8,-0.2
12756,-33.7,50.7,-6.3,2.2,57.1,53.3,-4,1.1
12811,-47.1,50.7,-22.2,0,57.1,53.3,-7.8,3.2
12839,-47.1,50.7,-22.2,0,54.7,88.5,-8.2,3.2
12894,-48.9,44.5,-3.1,-10.4,27.8,52.7,-8.4,3.2
12918,-48.9,44.5,-3.1,-10.4,27.8,52.7,-8.2,3.2
12959,-42.8,32.8,6.4,-9.4,6.2,37.1,-8.2,3.1
13016,-37.5,25.3,8.9,-12.5,-32.2,28,-8.3,3.2
13039,-33.2,20.1,7.2,-8.7,-30.7,27.9,-8.3,3.2
13082,-21.5,7.7,10.5,-10.4,-34.5,4.6,-8.2,3.1
13135,-6.6,-7,13.7,-14.1,-40.9,-32.6,-8.2,3.2
13157,-6.6,-7,13.7,-14.1,-40.9,-32.6,-8.2,3.1
13200,8.2,-19.4,24.7,-20.5,-72.8,-64.3,-8.1,3.1
13258,8.2,-36.7,0,-28.9,-99.00001,-32.3,-7.2,2
13278,8.2,-36.7,0,-28.9,-99.00001,-32.3,-7.2,2
13317,8.2,-36.7,0,-28.9,-99.00001,-32.3,-4.8,-1.2
13360,8.2,-36.7,0,-28.9,-99.00001,-32.3,-2.5,-9.8
13398,8.2,-36.7,0,-28.9,-99.00001,-32.3,-2.9,-10.3
13436,8.2,-36.7,0,-28.9,-99.00001,-32.3,-3.5,-9.3
13476,8.2,-36.7,0,-28.9,-99.00001,-32.3,-3.9,-8.9
13518,8.2,-36.7,0,-28.9,-99.00001,-32.3,-3.9,-8.9
13556,8.2,-36.7,0,-28.9,-99.00001,-32.3,-3.9,-8.9
13599,8.2,-36.7,0,-28.9,-99.00001,-32.3,-3.9,-8.9
13641,8.2,-36.7,0,-28.9,-99.00001,-32.3,-3.9,-8.9
13677,8.2,-36.7,0,-28.9,-99.00001,-32.3,-3.9,-8.9
13716,8.2,-36.7,0,-28.9,-99.00001,-32.3,-3.9,-8.9
13758,8.2,-36.7,0,-28.9,-99.00001,-32.3,-3.9,-8.9
13799,8.2,-36.7,0,-28.9,-99.00001,-32.3,-3.9,-8.9
13837,8.2,-36.7,0,-28.9,-99.00001,-32.3,-3.9,-8.9
13877,8.2,-36.7,0,-28.9,-99.00001,-32.3,-3.9,-8.9
13921,8.2,-36.7,0,-28.9,-99.00001,-32.3,-3.9,-8.9
13958,8.2,-36.7,0,-28.9,-99.00001,-32.3,-3.9,-8.9
13998,8.2,-36.7,0,-28.9,-99.00001,-32.3,-3.9,-8.9
14037,8.2,-36.7,0,-28.9,-99.00001,-32.3,-3.9,-8.9
14077,8.2,-36.7,0,-28.9,-99.00001,-32.3,-3.9,-8.9
14117,8.2,-36.7,0,-28.9,-99.00001,-32.3,-3.9,-8.9
14157,8.2,-36.7,0,-28.9,-99.00001,-32.3,-3.9,-8.9
14202,8.2,-36.7,0,-28.9,-99.00001,-32.3,-3.8,-8.9
14238,8.2,-36.7,0,-28.9,-99.00001,-32.3,-3.8,-8.9
14277,8.2,-36.7,0,-28.9,-99.00001,-32.3,-3.8,-8.9
14317,8.2,-36.7,0,-28.9,-99.00001,-32.3,-3.8,-8.9
14358,8.2,-36.7,0,-28.9,-99.00001,-32.3,-3.8,-8.9
14398,8.2,-36.7,0,-28.9,-99.00001,-32.3,-3.8,-8.9
14437,8.2,-36.7,0,-28.9,-99.00001,-32.3,-3.8,-8.8
14481,8.2,-36.7,0,-28.9,-99.00001,-32.3,-3.8,-8.8
14517,8.2,-36.7,0,-28.9,-99.00001,-32.3,-3.8,-8.8
14557,8.2,-36.7,0,-28.9,-99.00001,-32.3,-3.8,-8.8
14599,8.2,-36.7,0,-28.9,-99.00001,-32.3,-3.8,-8.8
14637,8.2,-36.7,0,-28.9,-99.00001,-32.3,-3.8,-8.8
14677,8.2,-36.7,0,-28.9,-99.00001,-32.3,-3.8,-8.8
14718,8.2,-36.7,0,-28.9,-99.00001,-32.3,-3.8,-8.8
14759,8.2,-36.7,0,-28.9,-99.00001,-32.3,-3.8,-8.8
14799,8.2,-36.7,0,-28.9,-99.00001,-32.3,-3.8,-8.8
14837,8.2,-36.7,0,-28.9,-99.00001,-32.3,-3.8,-8.8
14877,8.2,-36.7,0,-28.9,-99.00001,-32.3,-3.8,-8.8
14918,8.2,-36.7,0,-28.9,-99.00001,-32.3,-3.8,-8.8
14957,8.2,-36.7,0,-28.9,-99.00001,-32.3,-3.8,-8.8
14998,8.2,-36.7,0,-28.9,-99.00001,-32.3,-3.8,-8.8
15040,8.2,-36.7,0,-28.9,-99.00001,-32.3,-3.8,-8.8
15079,8.2,-36.7,0,-28.9,-99.00001,-32.3,-3.8,-8.8
15117,8.2,-36.7,0,-28.9,-99.00001,-32.3,-3.8,-8.8
15157,8.2,-36.7,0,-28.9,-99.00001,-32.3,-3.8,-8.8
15200,8.2,-36.7,0,-28.9,-99.00001,-32.3,-3.8,-8.8
15237,8.2,-36.7,0,-28.9,-99.00001,-32.3,-3.8,-8.8
15277,8.2,-36.7,0,-28.9,-99.00001,-32.3,-3.8,-8.8
15321,8.2,-36.7,0,-28.9,-99.00001,-32.3,-3.8,-8.8
15356,8.2,-36.7,0,-28.9,-99.00001,-32.3,-3.8,-8.8
15398,8.2,-36.7,0,-28.9,-99.00001,-32.3,-3.8,-8.8
15437,8.2,-36.7,0,-28.9,-99.00001,-32.3,-3.8,-8.8
15477,8.2,-36.7,0,-28.9,-99.00001,-32.3,-3.8,-8.8
15516,8.2,-36.7,0,-28.9,-99.00001,-32.3,-3.8,-8.8
15557,8.2,-36.7,0,-28.9,-99.00001,-32.3,-3.8,-8.8
15600,8.2,-36.7,0,-28.9,-99.00001,-32.3,-3.8,-8.8
15637,8.2,-36.7,0,-28.9,-99.00001,-32.3,-3.8,-8.8
15677,8.2,-36.7,0,-28.9,-99.00001,-32.3,-3.8,-8.8
15717,8.2,-36.7,0,-28.9,-99.00001,-32.3,-3.8,-8.8
15757,8.2,-36.7,0,-28.9,-99.00001,-32.3,-3.8,-8.8
15798,8.2,-36.7,0,-28.9,-99.00001,-32.3,-3.8,-8.8
15837,8.2,-36.7,0,-28.9,-99.00001,-32.3,-3.8,-8.8
15880,8.2,-36.7,0,-28.9,-99.00001,-32.3,-3.8,-8.8
15918,8.2,-36.7,0,-28.9,-99.00001,-32.3,-3.8,-8.8
15957,8.2,-36.7,0,-28.9,-99.00001,-32.3,-3.8,-8.8
15998,8.2,-36.7,0,-28.9,-99.00001,-32.3,-3.8,-8.8
16039,8.2,-36.7,0,-28.9,-99.00001,-32.3,-3.8,-8.8
16077,8.2,-36.7,0,-28.9,-99.00001,-32.3,-3.8,-8.8
16117,8.2,-36.7,0,-28.9,-99.00001,-32.3,-3.8,-8.8
16161,8.2,-36.7,0,-28.9,-99.00001,-32.3,-3.8,-8.8
16198,8.2,-36.7,0,-28.9,-99.00001,-32.3,-3.8,-8.8
16237,8.2,-36.7,0,-28.9,-99.00001,-32.3,-3.8,-8.8
16278,8.2,-36.7,0,-28.9,-99.00001,-32.3,-3.8,-8.8
16318,8.2,-36.7,0,-28.9,-99.00001,-32.3,-3.8,-8.8
16357,8.2,-36.7,0,-28.9,-99.00001,-32.3,-3.8,-8.8
16398,8.2,-36.7,0,-28.9,-99.00001,-32.3,-3.8,-8.8
16439,8.2,-36.7,0,-28.9,-99.00001,-32.3,-3.8,-8.8
16478,8.2,-36.7,0,-28.9,-99.00001,-32.3,-3.8,-8.8
16518,8.2,-36.7,0,-28.9,-99.00001,-32.3,-3.8,-8.8
16557,8.2,-36.7,0,-28.9,-99.00001,-32.3,-3.8,-8.8
16599,8.2,-36.7,0,-28.9,-99.00001,-32.3,-3.8,-8.8
16638,8.2,-36.7,0,-28.9,-99.00001,-32.3,-3.8,-8.8
16676,8.2,-36.7,0,-28.9,-99.00001,-32.3,-3.8,-8.8
16720,8.2,-36.7,0,-28.9,-99.00001,-32.3,-3.8,-8.8
16758,8.2,-36.7,0,-28.9,-99.00001,-32.3,-3.8,-8.8
16798,8.2,-36.7,0,-28.9,-99.00001,-32.3,-3.8,-8.8
16837,8.2,-36.7,0,-28.9,-99.00001,-32.3,-3.8,-8.8
16878,8.2,-36.7,0,-28.9,-99.00001,-32.3,-3.8,-8.8
16917,8.2,-36.7,0,-28.9,-99.00001,-32.3,-3.8,-8.8
16957,8.2,-36.7,0,-28.9,-99.00001,-32.3,-3.8,-8.8
17002,8.2,-36.7,0,-28.9,-99.00001,-32.3,-3.8,-8.8
17037,8.2,-36.7,0,-28.9,-99.00001,-32.3,-3.8,-8.8
17077,8.2,-36.7,0,-28.9,-99.00001,-32.3,-3.8,-8.8
17118,8.2,-36.7,0,-28.9,-99.00001,-32.3,-3.8,-8.8
17157,8.2,-36.7,0,-28.9,-99.00001,-32.3,-3.8,-8.8
17199,8.2,-36.7,0,-28.9,-99.00001,-32.3,-3.8,-8.8
17237,8.2,-36.7,0,-28.9,-99.00001,-32.3,-3.8,-8.8
17280,8.2,-36.7,0,-28.9,-99.00001,-32.3,-3.8,-8.8
17318,8.2,-36.7,0,-28.9,-99.00001,-32.3,-3.8,-8.8
17357,8.2,-36.7,0,-28.9,-99.00001,-32.3,-3.8,-8.8
17398,8.2,-36.7,0,-28.9,-99.00001,-32.3,-3.8,-8.8
17437,8.2,-36.7,0,-28.9,-99.00001,-32.3,-3.8,-8.8
17477,8.2,-36.7,0,-28.9,-99.00001,-32.3,-3.8,-8.8
17516,8.2,-36.7,0,-28.9,-99.00001,-32.3,-3.8,-8.8
17561,8.2,-36.7,0,-28.9,-99.00001,-32.3,-3.8,-8.8
17599,8.2,-36.7,0,-28.9,-99.00001,-32.3,-3.8,-8.8
17637,8.2,-36.7,0,-28.9,-99.00001,-32.3,-3.8,-8.8
17677,8.2,-36.7,0,-28.9,-99.00001,-32.3,-3.8,-8.8
17718,8.2,-36.7,0,-28.9,-99.00001,-32.3,-3.8,-8.8
17757,8.2,-36.7,0,-28.9,-99.00001,-32.3,-3.8,-8.8
17798,8.2,-36.7,0,-28.9,-99.00001,-32.3,-3.8,-8.8
17842,8.2,-36.7,0,-28.9,-99.00001,-32.3,-3.8,-8.8
17877,8.2,-36.7,0,-28.9,-99.00001,-32.3,-3.8,-8.8
17918,8.2,-36.7,0,-28.9,-99.00001,-32.3,-3.8,-8.8
17957,8.2,-36.7,0,-28.9,-99.00001,-32.3,-3.8,-8.8
17999,8.2,-36.7,0,-28.9,-99.00001,-32.3,-3.8,-8.8
18037,8.2,-36.7,0,-28.9,-99.00001,-32.3,-3.8,-8.8
18078,8.2,-36.7,0,-28.9,-99.00001,-32.3,-3.8,-8.8
18120,8.2,-36.7,0,-28.9,-99.00001,-32.3,-3.8,-8.8
18158,8.2,-36.7,0,-28.9,-99.00001,-32.3,-3.8,-8.8
18199,8.2,-36.7,0,-28.9,-99.00001,-32.3,-3.8,-8.8
18237,8.2,-36.7,0,-28.9,-99.00001,-32.3,-3.8,-8.8
18278,8.2,-36.7,0,-28.9,-99.00001,-32.3,-3.8,-8.8
18320,8.2,-36.7,0,-28.9,-99.00001,-32.3,-3.8,-8.8
18356,8.2,-36.7,0,-28.9,-99.00001,-32.3,-3.8,-8.8
18401,8.2,-36.7,0,-28.9,-99.00001,-32.3,-3.8,-8.8
18437,8.2,-36.7,0,-28.9,-99.00001,-32.3,-3.8,-8.8
18476,8.2,-36.7,0,-28.9,-99.00001,-32.3,-3.8,-8.8
18516,8.2,-36.7,0,-28.9,-99.00001,-32.3,-3.8,-8.8
18558,8.2,-36.7,0,-28.9,-99.00001,-32.3,-3.8,-8.8
18598,8.2,-36.7,0,-28.9,-99.00001,-32.3,-3.8,-8.8
18637,8.2,-36.7,0,-28.9,-99.00001,-32.3,-3.8,-8.8
18682,8.2,-36.7,0,-28.9,-99.00001,-32.3,-3.8,-8.8
18717,8.2,-36.7,0,-28.9,-99.00001,-32.3,-3.8,-8.8
18756,8.2,-36.7,0,-28.9,-99.00001,-32.3,-3.8,-8.8
18798,8.2,-36.7,0,-28.9,-99.00001,-32.3,-3.8,-8.8
18837,8.2,-36.7,0,-28.9,-99.00001,-32.3,-3.8,-8.8
18877,8.2,-36.7,0,-28.9,-99.00001,-32.3,-3.8,-8.8
18918,8.2,-36.7,0,-28.9,-99.00001,-32.3,-3.8,-8.8
18959,8.2,-36.7,0,-28.9,-99.00001,-32.3,-3.8,-8.8
18996,8.2,-36.7,0,-28.9,-99.00001,-32.3,-3.8,-8.8
19038,8.2,-36.7,0,-28.9,-99.00001,-32.3,-3.8,-8.8
19077,8.2,-36.7,0,-28.9,-99.00001,-32.3,-3.8,-8.8
19118,8.2,-36.7,0,-28.9,-99.00001,-32.3,-3.8,-8.8
19158,8.2,-36.7,0,-28.9,-99.00001,-32.3,-3.8,-8.8
19198,8.2,-36.7,0,-28.9,-99.00001,-32.3,-3.8,-8.8
19241,8.2,-36.7,0,-28.9,-99.00001,-32.3,-3.8,-8.9
19279,8.2,-36.7,0,-28.9,-99.00001,-32.3,-3.8,-8.8
19322,8.2,-36.7,0,-28.9,-99.00001,-32.3,-3.8,-8.8
19357,8.2,-36.7,0,-28.9,-99.00001,-32.3,-3.8,-8.8
19399,8.2,-36.7,0,-28.9,-99.00001,-32.3,-3.8,-8.8
19437,8.2,-36.7,0,-28.9,-99.00001,-32.3,-3.8,-8.8
19476,8.2,-36.7,0,-28.9,-99.00001,-32.3,-3.8,-8.8
19521,8.2,-36.7,0,-28.9,-99.00001,-32.3,-3.8,-8.8
19556,8.2,-36.7,0,-28.9,-99.00001,-32.3,-3.8,-8.8
19596,8.2,-36.7,0,-28.9,-99.00001,-32.3,-3.8,-8.8
19637,8.2,-36.7,0,-28.9,-99.00001,-32.3,-3.8,-8.8
19677,8.2,-36.7,0,-28.9,-99.00001,-32.3,-3.8,-8.8
19717,8.2,-36.7,0,-28.9,-99.00001,-32.3,-3.8,-8.8
19757,8.2,-36.7,0,-28.9,-99.00001,-32.3,-3.8,-8.8
19801,8.2,-36.7,0,-28.9,-99.00001,-32.3,-3.8,-8.8
19837,8.2,-36.7,0,-28.9,-99.00001,-32.3,-3.8,-8.8
19877,8.2,-36.7,0,-28.9,-99.00001,-32.3,-3.8,-8.8
0,0,0,0,0,0,0,0,0
0,0,0,0,0,0,0,0,0
